intro-to-r-rstudio
…
---
# Load the continuous data with two groups

These data are formatted with two columns - Sex and HDL - and each row contains the data for one subject.

```r
cont1 <- readxl::read_excel(
  here::here("rstudio-demo", "data", "StatsDataSet-2B.xlsx")
  )

cont1
```

```
## # A tibble: 24 x 2
##    Sex      HDL
##    <chr>  <dbl>
##  1 Female    22
##  2 Female    33
##  3 Female    79
##  4 Female    97
##  5 Female    60
##  6 Female    87
##  7 Female    78
##  8 Female    83
##  9 Female    80
## 10 Female    78
## # ... with 14 more rows
```
…
---
# Load the continuous data for >2 groups

These data are formatted with two columns - Strain and Atherosclerosis - and each row contains the data for one subject.

```r
cont2 <- readxl::read_excel(
  here::here("rstudio-demo", "data", "StatsDataSet-3.xlsx"))
cont2
```

```
## # A tibble: 87 x 2
##    Strain Atherosclerosis
##    <chr>            <dbl>
##  1 AA               13383
##  2 AA               17935
##  3 AA                7311
##  4 AA               21819
##  5 AA              118014
##  6 AA               45490
##  7 AA               52811
##  8 AA               20820
##  9 AA               94141
## 10 AA              127773
## # ... with 77 more rows
```
…
